[
{"no":"1", "nameclient":"Carmen", "cedulaclient": 12345467,"amountloans":3000000000, "interest":20,"paymentdate":"10/20/20014","loandate":"10/20/20014","state":true},
{"no":"2", "nameclient":"Juan", "cedulaclient": 12345678,"amountloans":3000000000, "interest":20,"paymentdate":"10/20/20014","loandate":"10/20/20014","state":false},
{"no":"3", "nameclient":"Pedro", "cedulaclient": 12345678,"amountloans":3000000000, "interest":20,"paymentdate":"10/20/20014","loandate":"10/20/20014","state":false},
{"no":"4", "nameclient":"Dunia", "cedulaclient": 12345678,"amountloans":3000000000, "interest":20,"paymentdate":"10/20/20014","loandate":"10/20/20014","state":true},
{"no":"5", "nameclient":"Alberto", "cedulaclient": 12345678,"amountloans":3000000000, "interest":20,"paymentdate":"10/20/20014","loandate":"10/20/20014","state":false}
]